RTF Examples for Tables with Pageby Feature • r2rtf
…
ae_t1 

## # A tibble: 100 x 11
##    USUBJID  ASTDY AEDECD1  DUR    AESEV AESER AEREL AEACN AEOUT TRTA  SUBJLINE  
##    <chr>    <dbl> <chr>    <chr>  <chr> <chr> <chr> <chr> <chr> <chr> <chr>     
##  1 01-701-…     2 APPLICA… "NA "  MILD  N     PROB… ""    NOT … Plac… Trial Num…
##  2 01-701-…     2 APPLICA… "NA "  MILD  N     PROB… ""    NOT … Plac… Trial Num…
##  3 01-701-…     8 DIARRHO… "3 DA… MILD  N     REMO… ""    RECO… Plac… Trial Num…
##  4 01-701-…     3 ERYTHEMA "24 D… MILD  N     POSS… ""    NOT … Plac… Trial Num…
##  5 01-701-…     3 ERYTHEMA "NA "  MODE… N     PROB… ""    NOT … Plac… Trial Num…
##  6 01-701-…    22 ATRIOVE… "NA "  MILD  N     POSS… ""    NOT … Plac… Trial Num…
##  7 01-701-…     3 ERYTHEMA "24 D… MILD  N     POSS… ""    RECO… Plac… Trial Num…
##  8 01-701-…     3 APPLICA… "NA "  MILD  N     POSS… ""    NOT … Xano… Trial Num…
##  9 01-701-…    21 APPLICA… "NA "  MILD  N     PROB… ""    NOT … Xano… Trial Num…
## 10 01-701-…    58 APPLICA… "NA "  MILD  N     PROB… ""    NOT … Xano… Trial Num…
## # … with 90 more rows
…
