RTF Examples for AE Summary Count Tables • r2rtf
…
## `summarise()` regrouping output by 'TRTA' (override with `.groups` argument)

ae_t1

## # A tibble: 21 x 7
##    AEDECOD Placebo_n_ae Placebo_pct `Xanomeline Hig… `Xanomeline Hig…
##    <chr>          <dbl>       <dbl>            <dbl>            <dbl>
##  1 APPLIC…            5        7.25                7             8.86
##  2 APPLIC…            0        0                  15            19.0 
##  3 APPLIC…            0        0                   9            11.4 
##  4 APPLIC…            6        8.7                22            27.8 
##  5 APPLIC…            0        0                   6             7.59
##  6 BLISTER            0        0                   0             0   
##  7 COUGH              0        0                   5             6.33
##  8 DIARRH…            9       13.0                 0             0   
##  9 DIZZIN…            0        0                  12            15.2 
## 10 ERYTHE…            9       13.0                14            17.7 
## # … with 11 more rows, and 2 more variables: `Xanomeline Low Dose_n_ae` <dbl>,
## #   `Xanomeline Low Dose_pct` <dbl>
…
