RTF Examples for Tables • r2rtf
…
# Step 1: Get raw summary
data(adae)
ae_t1 <- adae %>%
          group_by(TRTP) %>%
          mutate(n_subj = n_distinct(SUBJID)) %>%
          group_by(TRTP, AEDECOD) %>%
          summarise(n_ae = n_distinct(SUBJID),
                    pct  = round(n_ae/unique(n_subj) * 100, 2) ) %>%
          dplyr::filter(n_ae > 4) %>%  # only show AE terms with at least 10 subjects in one treatment group.
          gather( key = "var", value = "value", n_ae, pct) %>%
          unite(temp, TRTP, var) %>%
          spread( temp, value, fill = 0)
ae_t1

## # A tibble: 21 x 7
##    AEDECOD Placebo_n_ae Placebo_pct `Xanomeline Hig… `Xanomeline Hig…
##    <fct>          <dbl>       <dbl>            <dbl>            <dbl>
##  1 APPLIC…            5        7.25                7             8.86
##  2 APPLIC…            0        0                  15            19.0 
##  3 APPLIC…            0        0                   9            11.4 
##  4 APPLIC…            6        8.7                22            27.8 
##  5 APPLIC…            0        0                   6             7.59
##  6 BLISTER            0        0                   0             0   
##  7 COUGH              0        0                   5             6.33
##  8 DIARRH…            9       13.0                 0             0   
##  9 DIZZIN…            0        0                  12            15.2 
## 10 ERYTHE…            9       13.0                14            17.7 
## # … with 11 more rows, and 2 more variables: `Xanomeline Low Dose_n_ae` <dbl>,
## #   `Xanomeline Low Dose_pct` <dbl>
…
